-- Merging decision tree log ---
manifest
ADDED from /home/sakha-t4504/Desktop/sunnev-app/android/app/src/main/AndroidManifest.xml:1:1-25:12
INJECTED from /home/sakha-t4504/Desktop/sunnev-app/android/app/src/main/AndroidManifest.xml:1:1-25:12
INJECTED from /home/sakha-t4504/Desktop/sunnev-app/android/app/src/main/AndroidManifest.xml:1:1-25:12
INJECTED from /home/sakha-t4504/Desktop/sunnev-app/android/app/src/main/AndroidManifest.xml:1:1-25:12
MERGED from /home/sakha-t4504/Desktop/sunnev-app/android/app/src/main/AndroidManifest.xml:1:1-25:12
MERGED from [com.facebook.flipper:flipper:0.99.0] /home/sakha-t4504/.gradle/caches/transforms-2/files-2.1/4fbc67491df6e76a5346b6b7d0adb7ac/jetified-flipper-0.99.0/AndroidManifest.xml:8:1-18:12
MERGED from [com.facebook.flipper:flipper-network-plugin:0.99.0] /home/sakha-t4504/.gradle/caches/transforms-2/files-2.1/a7fd9868ed8b180591af125d9979dc10/jetified-flipper-network-plugin-0.99.0/AndroidManifest.xml:8:1-15:12
MERGED from [com.facebook.flipper:flipper-fresco-plugin:0.99.0] /home/sakha-t4504/.gradle/caches/transforms-2/files-2.1/50effe87b6184b059a25a895edb6137a/jetified-flipper-fresco-plugin-0.99.0/AndroidManifest.xml:8:1-15:12
MERGED from [:react-native-community_async-storage] /home/sakha-t4504/Desktop/sunnev-app/node_modules/@react-native-community/async-storage/android/build/intermediates/merged_manifest/debug/AndroidManifest.xml:2:1-9:12
MERGED from [:react-native-community_progress-bar-android] /home/sakha-t4504/Desktop/sunnev-app/node_modules/@react-native-community/progress-bar-android/android/build/intermediates/merged_manifest/debug/AndroidManifest.xml:2:1-9:12
MERGED from [:react-native-auth0] /home/sakha-t4504/Desktop/sunnev-app/node_modules/react-native-auth0/android/build/intermediates/merged_manifest/debug/AndroidManifest.xml:4:1-49:12
MERGED from [:react-native-gesture-handler] /home/sakha-t4504/Desktop/sunnev-app/node_modules/react-native-gesture-handler/android/build/intermediates/merged_manifest/debug/AndroidManifest.xml:2:1-9:12
MERGED from [:react-native-localization] /home/sakha-t4504/Desktop/sunnev-app/node_modules/react-native-localization/android/build/intermediates/merged_manifest/debug/AndroidManifest.xml:2:1-9:12
MERGED from [:react-native-pager-view] /home/sakha-t4504/Desktop/sunnev-app/node_modules/react-native-pager-view/android/build/intermediates/merged_manifest/debug/AndroidManifest.xml:2:1-9:12
MERGED from [:react-native-safe-area-context] /home/sakha-t4504/Desktop/sunnev-app/node_modules/react-native-safe-area-context/android/build/intermediates/merged_manifest/debug/AndroidManifest.xml:2:1-9:12
MERGED from [:react-native-screens] /home/sakha-t4504/Desktop/sunnev-app/node_modules/react-native-screens/android/build/intermediates/merged_manifest/debug/AndroidManifest.xml:2:1-9:12
MERGED from [:react-native-vector-icons] /home/sakha-t4504/Desktop/sunnev-app/node_modules/react-native-vector-icons/android/build/intermediates/merged_manifest/debug/AndroidManifest.xml:2:1-9:12
MERGED from [com.facebook.react:react-native:0.66.0] /home/sakha-t4504/.gradle/caches/transforms-2/files-2.1/f0a37fef4e022b985f06a2f81addce06/jetified-react-native-0.66.0/AndroidManifest.xml:2:1-11:12
MERGED from [androidx.swiperefreshlayout:swiperefreshlayout:1.0.0] /home/sakha-t4504/.gradle/caches/transforms-2/files-2.1/a8dfdd48a7627ba7f14685d9e694f030/swiperefreshlayout-1.0.0/AndroidManifest.xml:17:1-22:12
MERGED from [org.webkit:android-jsc:r250230] /home/sakha-t4504/.gradle/caches/transforms-2/files-2.1/6ed014b824cf26c0a7472d75707b2195/jetified-android-jsc-r250230/AndroidManifest.xml:2:1-11:12
MERGED from [com.facebook.fresco:flipper:2.5.0] /home/sakha-t4504/.gradle/caches/transforms-2/files-2.1/1cc35f68ab81673ef138c9ab61a9480a/jetified-flipper-2.5.0/AndroidManifest.xml:2:1-9:12
MERGED from [com.facebook.fresco:stetho:2.5.0] /home/sakha-t4504/.gradle/caches/transforms-2/files-2.1/9aadb9e7dd319d2aec1505ebf57e40ee/jetified-stetho-2.5.0/AndroidManifest.xml:2:1-9:12
MERGED from [com.facebook.fresco:fresco:2.5.0] /home/sakha-t4504/.gradle/caches/transforms-2/files-2.1/6ea32d7d5c86cbfa3d35751b27790367/jetified-fresco-2.5.0/AndroidManifest.xml:2:1-9:12
MERGED from [com.facebook.fresco:soloader:2.5.0] /home/sakha-t4504/.gradle/caches/transforms-2/files-2.1/58209c65e26a74db7119227792cd704a/jetified-soloader-2.5.0/AndroidManifest.xml:2:1-9:12
MERGED from [com.facebook.fresco:imagepipeline-okhttp3:2.5.0] /home/sakha-t4504/.gradle/caches/transforms-2/files-2.1/3c04ff60198a4e65b1b61b98239cef4e/jetified-imagepipeline-okhttp3-2.5.0/AndroidManifest.xml:2:1-9:12
MERGED from [com.facebook.fresco:drawee:2.5.0] /home/sakha-t4504/.gradle/caches/transforms-2/files-2.1/4fad59f5829eae2d6f5ce1baef3f4694/jetified-drawee-2.5.0/AndroidManifest.xml:2:1-9:12
MERGED from [com.facebook.fresco:nativeimagefilters:2.5.0] /home/sakha-t4504/.gradle/caches/transforms-2/files-2.1/ac93f5f8e94602cad5cc56477af9ebfb/jetified-nativeimagefilters-2.5.0/AndroidManifest.xml:2:1-9:12
MERGED from [com.facebook.fresco:memory-type-native:2.5.0] /home/sakha-t4504/.gradle/caches/transforms-2/files-2.1/08da91f4b8ad8f71adf9bbb8001a6551/jetified-memory-type-native-2.5.0/AndroidManifest.xml:2:1-9:12
MERGED from [com.facebook.fresco:memory-type-java:2.5.0] /home/sakha-t4504/.gradle/caches/transforms-2/files-2.1/8ca25bd49a6abeb23160e6a0eea64f6a/jetified-memory-type-java-2.5.0/AndroidManifest.xml:2:1-9:12
MERGED from [com.facebook.fresco:imagepipeline-native:2.5.0] /home/sakha-t4504/.gradle/caches/transforms-2/files-2.1/023cce834ceca2c3d7ea725c688231fd/jetified-imagepipeline-native-2.5.0/AndroidManifest.xml:2:1-9:12
MERGED from [com.facebook.soloader:soloader:0.10.1] /home/sakha-t4504/.gradle/caches/transforms-2/files-2.1/537b4305fcfa1f338962e743340ab9ec/jetified-soloader-0.10.1/AndroidManifest.xml:2:1-13:12
MERGED from [com.facebook.fresco:memory-type-ashmem:2.5.0] /home/sakha-t4504/.gradle/caches/transforms-2/files-2.1/fef4af19962170d8acdb52852dc94ea9/jetified-memory-type-ashmem-2.5.0/AndroidManifest.xml:2:1-9:12
MERGED from [com.facebook.fresco:imagepipeline:2.5.0] /home/sakha-t4504/.gradle/caches/transforms-2/files-2.1/091ec2a17907de8d9c56b837cfd6b110/jetified-imagepipeline-2.5.0/AndroidManifest.xml:2:1-9:12
MERGED from [com.facebook.fresco:nativeimagetranscoder:2.5.0] /home/sakha-t4504/.gradle/caches/transforms-2/files-2.1/fe5808a2b8857751cbcd225bd30243b3/jetified-nativeimagetranscoder-2.5.0/AndroidManifest.xml:2:1-9:12
MERGED from [com.facebook.fresco:imagepipeline-base:2.5.0] /home/sakha-t4504/.gradle/caches/transforms-2/files-2.1/4eb5ac7f95e2342b064008bc0c3de5a9/jetified-imagepipeline-base-2.5.0/AndroidManifest.xml:2:1-9:12
MERGED from [com.google.android.material:material:1.1.0] /home/sakha-t4504/.gradle/caches/transforms-2/files-2.1/49254b3f9a4377c4885e8931bf2f5a16/material-1.1.0/AndroidManifest.xml:17:1-24:12
MERGED from [androidx.appcompat:appcompat:1.3.0] /home/sakha-t4504/.gradle/caches/transforms-2/files-2.1/60f55f849fe3058cf6c57f8a12fe7aab/appcompat-1.3.0/AndroidManifest.xml:17:1-24:12
MERGED from [androidx.sqlite:sqlite-framework:2.1.0] /home/sakha-t4504/.gradle/caches/transforms-2/files-2.1/4c42d72ac173cc222eb83c0553a5e2f6/sqlite-framework-2.1.0/AndroidManifest.xml:17:1-24:12
MERGED from [androidx.autofill:autofill:1.1.0] /home/sakha-t4504/.gradle/caches/transforms-2/files-2.1/216c5e522d0bc3b1993e5b9880bc564e/jetified-autofill-1.1.0/AndroidManifest.xml:17:1-24:12
MERGED from [com.facebook.fresco:middleware:2.5.0] /home/sakha-t4504/.gradle/caches/transforms-2/files-2.1/0f4af3bf53193e336ada21995bbda551/jetified-middleware-2.5.0/AndroidManifest.xml:2:1-9:12
MERGED from [com.facebook.fresco:ui-common:2.5.0] /home/sakha-t4504/.gradle/caches/transforms-2/files-2.1/f2c47bc9d75f81d36eed34b0c4f59cc6/jetified-ui-common-2.5.0/AndroidManifest.xml:2:1-9:12
MERGED from [androidx.browser:browser:1.2.0] /home/sakha-t4504/.gradle/caches/transforms-2/files-2.1/16ebc7d684f81555152cc4f9f1e51ba5/browser-1.2.0/AndroidManifest.xml:17:1-24:12
MERGED from [androidx.appcompat:appcompat-resources:1.3.0] /home/sakha-t4504/.gradle/caches/transforms-2/files-2.1/ef46474007b4a9dd7182aa2cfc333967/jetified-appcompat-resources-1.3.0/AndroidManifest.xml:17:1-24:12
MERGED from [androidx.vectordrawable:vectordrawable-animated:1.1.0] /home/sakha-t4504/.gradle/caches/transforms-2/files-2.1/eee09a6ef29bf9f4b1744bce269f2400/vectordrawable-animated-1.1.0/AndroidManifest.xml:17:1-24:12
MERGED from [androidx.interpolator:interpolator:1.0.0] /home/sakha-t4504/.gradle/caches/transforms-2/files-2.1/3e3edfd256295f36580e2a347fe48df4/interpolator-1.0.0/AndroidManifest.xml:17:1-22:12
MERGED from [androidx.viewpager2:viewpager2:1.0.0] /home/sakha-t4504/.gradle/caches/transforms-2/files-2.1/04623480c363d7fc6ea21bff1063c4e8/jetified-viewpager2-1.0.0/AndroidManifest.xml:17:1-24:12
MERGED from [androidx.coordinatorlayout:coordinatorlayout:1.1.0] /home/sakha-t4504/.gradle/caches/transforms-2/files-2.1/2f06cf59b409b584b45a28eb51577658/coordinatorlayout-1.1.0/AndroidManifest.xml:17:1-24:12
MERGED from [androidx.fragment:fragment:1.3.4] /home/sakha-t4504/.gradle/caches/transforms-2/files-2.1/c0adea4d02b5889023e658d4fa7e8817/fragment-1.3.4/AndroidManifest.xml:17:1-24:12
MERGED from [androidx.activity:activity:1.2.3] /home/sakha-t4504/.gradle/caches/transforms-2/files-2.1/ca7b1eaef5f33ba3a1beed9bb54d5d44/jetified-activity-1.2.3/AndroidManifest.xml:17:1-24:12
MERGED from [androidx.drawerlayout:drawerlayout:1.0.0] /home/sakha-t4504/.gradle/caches/transforms-2/files-2.1/0207a19946c50cffa75456c6ce9eeb6e/drawerlayout-1.0.0/AndroidManifest.xml:17:1-22:12
MERGED from [androidx.recyclerview:recyclerview:1.1.0] /home/sakha-t4504/.gradle/caches/transforms-2/files-2.1/49383b39e2b96d866119d3471844378d/recyclerview-1.1.0/AndroidManifest.xml:17:1-24:12
MERGED from [androidx.viewpager:viewpager:1.0.0] /home/sakha-t4504/.gradle/caches/transforms-2/files-2.1/f9d5bd6112a9b739a4148486b2a8d958/viewpager-1.0.0/AndroidManifest.xml:17:1-22:12
MERGED from [androidx.customview:customview:1.0.0] /home/sakha-t4504/.gradle/caches/transforms-2/files-2.1/169f181162afe56d4a696d98123e3920/customview-1.0.0/AndroidManifest.xml:17:1-22:12
MERGED from [androidx.transition:transition:1.2.0] /home/sakha-t4504/.gradle/caches/transforms-2/files-2.1/386e87e903a8cce053d10e2b9a117611/transition-1.2.0/AndroidManifest.xml:17:1-24:12
MERGED from [androidx.vectordrawable:vectordrawable:1.1.0] /home/sakha-t4504/.gradle/caches/transforms-2/files-2.1/c6b6972e6171a6320bdf70572301960b/vectordrawable-1.1.0/AndroidManifest.xml:17:1-24:12
MERGED from [androidx.loader:loader:1.0.0] /home/sakha-t4504/.gradle/caches/transforms-2/files-2.1/1db75c242e945d5468916304b05486d0/loader-1.0.0/AndroidManifest.xml:17:1-22:12
MERGED from [androidx.core:core:1.5.0] /home/sakha-t4504/.gradle/caches/transforms-2/files-2.1/06d2d4dbfdabd6ab0290c6234495b966/core-1.5.0/AndroidManifest.xml:17:1-26:12
MERGED from [androidx.cursoradapter:cursoradapter:1.0.0] /home/sakha-t4504/.gradle/caches/transforms-2/files-2.1/ae7bfff1d1b82f3a56e0a5bbf9e1a4b2/cursoradapter-1.0.0/AndroidManifest.xml:17:1-22:12
MERGED from [androidx.lifecycle:lifecycle-viewmodel-savedstate:2.3.1] /home/sakha-t4504/.gradle/caches/transforms-2/files-2.1/5784c2b86a4c49bc25795330978ed2aa/jetified-lifecycle-viewmodel-savedstate-2.3.1/AndroidManifest.xml:17:1-24:12
MERGED from [androidx.savedstate:savedstate:1.1.0] /home/sakha-t4504/.gradle/caches/transforms-2/files-2.1/dcccfa8f9f5a312bf6e661fdac02afbd/jetified-savedstate-1.1.0/AndroidManifest.xml:17:1-24:12
MERGED from [androidx.lifecycle:lifecycle-runtime:2.3.1] /home/sakha-t4504/.gradle/caches/transforms-2/files-2.1/f0521851a9272e8988276dd842141243/lifecycle-runtime-2.3.1/AndroidManifest.xml:17:1-24:12
MERGED from [androidx.lifecycle:lifecycle-viewmodel:2.3.1] /home/sakha-t4504/.gradle/caches/transforms-2/files-2.1/842095d20d3923d0c9134de338252181/lifecycle-viewmodel-2.3.1/AndroidManifest.xml:17:1-24:12
MERGED from [androidx.sqlite:sqlite:2.1.0] /home/sakha-t4504/.gradle/caches/transforms-2/files-2.1/18b70bd885ef44b04d23eaea8b9e2565/sqlite-2.1.0/AndroidManifest.xml:17:1-24:12
MERGED from [androidx.versionedparcelable:versionedparcelable:1.1.1] /home/sakha-t4504/.gradle/caches/transforms-2/files-2.1/f045c28ab041f1b619adca014bdef617/versionedparcelable-1.1.1/AndroidManifest.xml:17:1-27:12
MERGED from [androidx.cardview:cardview:1.0.0] /home/sakha-t4504/.gradle/caches/transforms-2/files-2.1/80091c578355faacb5952acbadd09f04/cardview-1.0.0/AndroidManifest.xml:17:1-22:12
MERGED from [androidx.tracing:tracing:1.0.0] /home/sakha-t4504/.gradle/caches/transforms-2/files-2.1/f99f0e94433f7a4ca40a9262f20fc09a/jetified-tracing-1.0.0/AndroidManifest.xml:17:1-24:12
MERGED from [androidx.lifecycle:lifecycle-livedata:2.0.0] /home/sakha-t4504/.gradle/caches/transforms-2/files-2.1/ebdf1b21acda14c0f3b42515fde52f8f/lifecycle-livedata-2.0.0/AndroidManifest.xml:17:1-22:12
MERGED from [androidx.lifecycle:lifecycle-livedata-core:2.3.1] /home/sakha-t4504/.gradle/caches/transforms-2/files-2.1/8fc31c708ec6dc9144a8a1e8a838ba3e/lifecycle-livedata-core-2.3.1/AndroidManifest.xml:17:1-24:12
MERGED from [androidx.arch.core:core-runtime:2.1.0] /home/sakha-t4504/.gradle/caches/transforms-2/files-2.1/07e10bd024a5e47e7e02e4feac5b2813/core-runtime-2.1.0/AndroidManifest.xml:17:1-24:12
MERGED from [com.facebook.fresco:fbcore:2.5.0] /home/sakha-t4504/.gradle/caches/transforms-2/files-2.1/14eb99e1b7213746a76d663814010fa3/jetified-fbcore-2.5.0/AndroidManifest.xml:2:1-9:12
MERGED from [androidx.annotation:annotation-experimental:1.0.0] /home/sakha-t4504/.gradle/caches/transforms-2/files-2.1/0c62e577b790f781bf8ab6db59ad2963/jetified-annotation-experimental-1.0.0/AndroidManifest.xml:17:1-24:12
INJECTED from /home/sakha-t4504/Desktop/sunnev-app/android/app/src/debug/AndroidManifest.xml:2:1-13:12
INJECTED from /home/sakha-t4504/Desktop/sunnev-app/android/app/src/debug/AndroidManifest.xml:2:1-13:12
INJECTED from /home/sakha-t4504/Desktop/sunnev-app/android/app/src/debug/AndroidManifest.xml:2:1-13:12
	package
		ADDED from /home/sakha-t4504/Desktop/sunnev-app/android/app/src/main/AndroidManifest.xml:2:3-34
		INJECTED from /home/sakha-t4504/Desktop/sunnev-app/android/app/src/main/AndroidManifest.xml
		ADDED from /home/sakha-t4504/Desktop/sunnev-app/android/app/src/main/AndroidManifest.xml:2:3-34
		INJECTED from /home/sakha-t4504/Desktop/sunnev-app/android/app/src/debug/AndroidManifest.xml
	android:versionName
		INJECTED from /home/sakha-t4504/Desktop/sunnev-app/android/app/src/main/AndroidManifest.xml
		ADDED from /home/sakha-t4504/Desktop/sunnev-app/android/app/src/main/AndroidManifest.xml:1:1-25:12
		INJECTED from /home/sakha-t4504/Desktop/sunnev-app/android/app/src/debug/AndroidManifest.xml
	xmlns:tools
		ADDED from /home/sakha-t4504/Desktop/sunnev-app/android/app/src/debug/AndroidManifest.xml:3:5-51
	android:versionCode
		INJECTED from /home/sakha-t4504/Desktop/sunnev-app/android/app/src/main/AndroidManifest.xml
		ADDED from /home/sakha-t4504/Desktop/sunnev-app/android/app/src/main/AndroidManifest.xml:1:1-25:12
		INJECTED from /home/sakha-t4504/Desktop/sunnev-app/android/app/src/debug/AndroidManifest.xml
	xmlns:android
		ADDED from /home/sakha-t4504/Desktop/sunnev-app/android/app/src/main/AndroidManifest.xml:1:11-69
uses-permission#android.permission.INTERNET
ADDED from /home/sakha-t4504/Desktop/sunnev-app/android/app/src/main/AndroidManifest.xml:4:5-67
MERGED from [com.facebook.flipper:flipper:0.99.0] /home/sakha-t4504/.gradle/caches/transforms-2/files-2.1/4fbc67491df6e76a5346b6b7d0adb7ac/jetified-flipper-0.99.0/AndroidManifest.xml:15:5-67
MERGED from [com.facebook.flipper:flipper:0.99.0] /home/sakha-t4504/.gradle/caches/transforms-2/files-2.1/4fbc67491df6e76a5346b6b7d0adb7ac/jetified-flipper-0.99.0/AndroidManifest.xml:15:5-67
MERGED from [:react-native-auth0] /home/sakha-t4504/Desktop/sunnev-app/node_modules/react-native-auth0/android/build/intermediates/merged_manifest/debug/AndroidManifest.xml:12:5-67
MERGED from [:react-native-auth0] /home/sakha-t4504/Desktop/sunnev-app/node_modules/react-native-auth0/android/build/intermediates/merged_manifest/debug/AndroidManifest.xml:12:5-67
	android:name
		ADDED from /home/sakha-t4504/Desktop/sunnev-app/android/app/src/main/AndroidManifest.xml:4:22-64
application
ADDED from /home/sakha-t4504/Desktop/sunnev-app/android/app/src/main/AndroidManifest.xml:6:5-24:19
MERGED from /home/sakha-t4504/Desktop/sunnev-app/android/app/src/main/AndroidManifest.xml:6:5-24:19
MERGED from /home/sakha-t4504/Desktop/sunnev-app/android/app/src/main/AndroidManifest.xml:6:5-24:19
MERGED from [:react-native-auth0] /home/sakha-t4504/Desktop/sunnev-app/node_modules/react-native-auth0/android/build/intermediates/merged_manifest/debug/AndroidManifest.xml:24:5-47:19
MERGED from [:react-native-auth0] /home/sakha-t4504/Desktop/sunnev-app/node_modules/react-native-auth0/android/build/intermediates/merged_manifest/debug/AndroidManifest.xml:24:5-47:19
MERGED from [com.facebook.react:react-native:0.66.0] /home/sakha-t4504/.gradle/caches/transforms-2/files-2.1/f0a37fef4e022b985f06a2f81addce06/jetified-react-native-0.66.0/AndroidManifest.xml:9:5-20
MERGED from [com.facebook.react:react-native:0.66.0] /home/sakha-t4504/.gradle/caches/transforms-2/files-2.1/f0a37fef4e022b985f06a2f81addce06/jetified-react-native-0.66.0/AndroidManifest.xml:9:5-20
MERGED from [com.facebook.soloader:soloader:0.10.1] /home/sakha-t4504/.gradle/caches/transforms-2/files-2.1/537b4305fcfa1f338962e743340ab9ec/jetified-soloader-0.10.1/AndroidManifest.xml:11:5-20
MERGED from [com.facebook.soloader:soloader:0.10.1] /home/sakha-t4504/.gradle/caches/transforms-2/files-2.1/537b4305fcfa1f338962e743340ab9ec/jetified-soloader-0.10.1/AndroidManifest.xml:11:5-20
MERGED from [com.google.android.material:material:1.1.0] /home/sakha-t4504/.gradle/caches/transforms-2/files-2.1/49254b3f9a4377c4885e8931bf2f5a16/material-1.1.0/AndroidManifest.xml:22:5-20
MERGED from [com.google.android.material:material:1.1.0] /home/sakha-t4504/.gradle/caches/transforms-2/files-2.1/49254b3f9a4377c4885e8931bf2f5a16/material-1.1.0/AndroidManifest.xml:22:5-20
MERGED from [androidx.core:core:1.5.0] /home/sakha-t4504/.gradle/caches/transforms-2/files-2.1/06d2d4dbfdabd6ab0290c6234495b966/core-1.5.0/AndroidManifest.xml:24:5-89
MERGED from [androidx.core:core:1.5.0] /home/sakha-t4504/.gradle/caches/transforms-2/files-2.1/06d2d4dbfdabd6ab0290c6234495b966/core-1.5.0/AndroidManifest.xml:24:5-89
MERGED from [androidx.versionedparcelable:versionedparcelable:1.1.1] /home/sakha-t4504/.gradle/caches/transforms-2/files-2.1/f045c28ab041f1b619adca014bdef617/versionedparcelable-1.1.1/AndroidManifest.xml:24:5-25:19
MERGED from [androidx.versionedparcelable:versionedparcelable:1.1.1] /home/sakha-t4504/.gradle/caches/transforms-2/files-2.1/f045c28ab041f1b619adca014bdef617/versionedparcelable-1.1.1/AndroidManifest.xml:24:5-25:19
	android:appComponentFactory
		ADDED from [androidx.core:core:1.5.0] /home/sakha-t4504/.gradle/caches/transforms-2/files-2.1/06d2d4dbfdabd6ab0290c6234495b966/core-1.5.0/AndroidManifest.xml:24:18-86
	android:label
		ADDED from /home/sakha-t4504/Desktop/sunnev-app/android/app/src/main/AndroidManifest.xml:8:7-39
		ADDED from /home/sakha-t4504/Desktop/sunnev-app/android/app/src/main/AndroidManifest.xml:8:7-39
	tools:ignore
		ADDED from /home/sakha-t4504/Desktop/sunnev-app/android/app/src/debug/AndroidManifest.xml:10:9-48
	android:roundIcon
		ADDED from /home/sakha-t4504/Desktop/sunnev-app/android/app/src/main/AndroidManifest.xml:10:7-52
		ADDED from /home/sakha-t4504/Desktop/sunnev-app/android/app/src/main/AndroidManifest.xml:10:7-52
	tools:targetApi
		ADDED from /home/sakha-t4504/Desktop/sunnev-app/android/app/src/debug/AndroidManifest.xml:9:9-29
	android:icon
		ADDED from /home/sakha-t4504/Desktop/sunnev-app/android/app/src/main/AndroidManifest.xml:9:7-41
		ADDED from /home/sakha-t4504/Desktop/sunnev-app/android/app/src/main/AndroidManifest.xml:9:7-41
	android:allowBackup
		ADDED from /home/sakha-t4504/Desktop/sunnev-app/android/app/src/main/AndroidManifest.xml:11:7-34
		ADDED from /home/sakha-t4504/Desktop/sunnev-app/android/app/src/main/AndroidManifest.xml:11:7-34
	android:theme
		ADDED from /home/sakha-t4504/Desktop/sunnev-app/android/app/src/main/AndroidManifest.xml:12:7-38
		ADDED from /home/sakha-t4504/Desktop/sunnev-app/android/app/src/main/AndroidManifest.xml:12:7-38
	android:usesCleartextTraffic
		ADDED from /home/sakha-t4504/Desktop/sunnev-app/android/app/src/debug/AndroidManifest.xml:8:9-44
	android:name
		ADDED from /home/sakha-t4504/Desktop/sunnev-app/android/app/src/main/AndroidManifest.xml:7:7-38
		ADDED from /home/sakha-t4504/Desktop/sunnev-app/android/app/src/main/AndroidManifest.xml:7:7-38
activity#com.sunevhealth.sunev.MainActivity
ADDED from /home/sakha-t4504/Desktop/sunnev-app/android/app/src/main/AndroidManifest.xml:13:7-23:18
	android:label
		ADDED from /home/sakha-t4504/Desktop/sunnev-app/android/app/src/main/AndroidManifest.xml:15:9-41
	android:launchMode
		ADDED from /home/sakha-t4504/Desktop/sunnev-app/android/app/src/main/AndroidManifest.xml:17:9-40
	android:windowSoftInputMode
		ADDED from /home/sakha-t4504/Desktop/sunnev-app/android/app/src/main/AndroidManifest.xml:18:9-51
	android:configChanges
		ADDED from /home/sakha-t4504/Desktop/sunnev-app/android/app/src/main/AndroidManifest.xml:16:9-86
	android:name
		ADDED from /home/sakha-t4504/Desktop/sunnev-app/android/app/src/main/AndroidManifest.xml:14:9-37
intent-filter#action:name:android.intent.action.MAIN+category:name:android.intent.category.LAUNCHER
ADDED from /home/sakha-t4504/Desktop/sunnev-app/android/app/src/main/AndroidManifest.xml:19:9-22:25
action#android.intent.action.MAIN
ADDED from /home/sakha-t4504/Desktop/sunnev-app/android/app/src/main/AndroidManifest.xml:20:13-65
	android:name
		ADDED from /home/sakha-t4504/Desktop/sunnev-app/android/app/src/main/AndroidManifest.xml:20:21-62
category#android.intent.category.LAUNCHER
ADDED from /home/sakha-t4504/Desktop/sunnev-app/android/app/src/main/AndroidManifest.xml:21:13-73
	android:name
		ADDED from /home/sakha-t4504/Desktop/sunnev-app/android/app/src/main/AndroidManifest.xml:21:23-70
uses-sdk
INJECTED from /home/sakha-t4504/Desktop/sunnev-app/android/app/src/main/AndroidManifest.xml reason: use-sdk injection requested
INJECTED from /home/sakha-t4504/Desktop/sunnev-app/android/app/src/main/AndroidManifest.xml
INJECTED from /home/sakha-t4504/Desktop/sunnev-app/android/app/src/main/AndroidManifest.xml
MERGED from [com.facebook.flipper:flipper:0.99.0] /home/sakha-t4504/.gradle/caches/transforms-2/files-2.1/4fbc67491df6e76a5346b6b7d0adb7ac/jetified-flipper-0.99.0/AndroidManifest.xml:11:5-13:41
MERGED from [com.facebook.flipper:flipper:0.99.0] /home/sakha-t4504/.gradle/caches/transforms-2/files-2.1/4fbc67491df6e76a5346b6b7d0adb7ac/jetified-flipper-0.99.0/AndroidManifest.xml:11:5-13:41
MERGED from [com.facebook.flipper:flipper-network-plugin:0.99.0] /home/sakha-t4504/.gradle/caches/transforms-2/files-2.1/a7fd9868ed8b180591af125d9979dc10/jetified-flipper-network-plugin-0.99.0/AndroidManifest.xml:11:5-13:41
MERGED from [com.facebook.flipper:flipper-network-plugin:0.99.0] /home/sakha-t4504/.gradle/caches/transforms-2/files-2.1/a7fd9868ed8b180591af125d9979dc10/jetified-flipper-network-plugin-0.99.0/AndroidManifest.xml:11:5-13:41
MERGED from [com.facebook.flipper:flipper-fresco-plugin:0.99.0] /home/sakha-t4504/.gradle/caches/transforms-2/files-2.1/50effe87b6184b059a25a895edb6137a/jetified-flipper-fresco-plugin-0.99.0/AndroidManifest.xml:11:5-13:41
MERGED from [com.facebook.flipper:flipper-fresco-plugin:0.99.0] /home/sakha-t4504/.gradle/caches/transforms-2/files-2.1/50effe87b6184b059a25a895edb6137a/jetified-flipper-fresco-plugin-0.99.0/AndroidManifest.xml:11:5-13:41
MERGED from [:react-native-community_async-storage] /home/sakha-t4504/Desktop/sunnev-app/node_modules/@react-native-community/async-storage/android/build/intermediates/merged_manifest/debug/AndroidManifest.xml:5:5-7:41
MERGED from [:react-native-community_async-storage] /home/sakha-t4504/Desktop/sunnev-app/node_modules/@react-native-community/async-storage/android/build/intermediates/merged_manifest/debug/AndroidManifest.xml:5:5-7:41
MERGED from [:react-native-community_progress-bar-android] /home/sakha-t4504/Desktop/sunnev-app/node_modules/@react-native-community/progress-bar-android/android/build/intermediates/merged_manifest/debug/AndroidManifest.xml:5:5-7:41
MERGED from [:react-native-community_progress-bar-android] /home/sakha-t4504/Desktop/sunnev-app/node_modules/@react-native-community/progress-bar-android/android/build/intermediates/merged_manifest/debug/AndroidManifest.xml:5:5-7:41
MERGED from [:react-native-auth0] /home/sakha-t4504/Desktop/sunnev-app/node_modules/react-native-auth0/android/build/intermediates/merged_manifest/debug/AndroidManifest.xml:8:5-10:41
MERGED from [:react-native-auth0] /home/sakha-t4504/Desktop/sunnev-app/node_modules/react-native-auth0/android/build/intermediates/merged_manifest/debug/AndroidManifest.xml:8:5-10:41
MERGED from [:react-native-gesture-handler] /home/sakha-t4504/Desktop/sunnev-app/node_modules/react-native-gesture-handler/android/build/intermediates/merged_manifest/debug/AndroidManifest.xml:5:5-7:41
MERGED from [:react-native-gesture-handler] /home/sakha-t4504/Desktop/sunnev-app/node_modules/react-native-gesture-handler/android/build/intermediates/merged_manifest/debug/AndroidManifest.xml:5:5-7:41
MERGED from [:react-native-localization] /home/sakha-t4504/Desktop/sunnev-app/node_modules/react-native-localization/android/build/intermediates/merged_manifest/debug/AndroidManifest.xml:5:5-7:41
MERGED from [:react-native-localization] /home/sakha-t4504/Desktop/sunnev-app/node_modules/react-native-localization/android/build/intermediates/merged_manifest/debug/AndroidManifest.xml:5:5-7:41
MERGED from [:react-native-pager-view] /home/sakha-t4504/Desktop/sunnev-app/node_modules/react-native-pager-view/android/build/intermediates/merged_manifest/debug/AndroidManifest.xml:5:5-7:41
MERGED from [:react-native-pager-view] /home/sakha-t4504/Desktop/sunnev-app/node_modules/react-native-pager-view/android/build/intermediates/merged_manifest/debug/AndroidManifest.xml:5:5-7:41
MERGED from [:react-native-safe-area-context] /home/sakha-t4504/Desktop/sunnev-app/node_modules/react-native-safe-area-context/android/build/intermediates/merged_manifest/debug/AndroidManifest.xml:5:5-7:41
MERGED from [:react-native-safe-area-context] /home/sakha-t4504/Desktop/sunnev-app/node_modules/react-native-safe-area-context/android/build/intermediates/merged_manifest/debug/AndroidManifest.xml:5:5-7:41
MERGED from [:react-native-screens] /home/sakha-t4504/Desktop/sunnev-app/node_modules/react-native-screens/android/build/intermediates/merged_manifest/debug/AndroidManifest.xml:5:5-7:41
MERGED from [:react-native-screens] /home/sakha-t4504/Desktop/sunnev-app/node_modules/react-native-screens/android/build/intermediates/merged_manifest/debug/AndroidManifest.xml:5:5-7:41
MERGED from [:react-native-vector-icons] /home/sakha-t4504/Desktop/sunnev-app/node_modules/react-native-vector-icons/android/build/intermediates/merged_manifest/debug/AndroidManifest.xml:5:5-7:41
MERGED from [:react-native-vector-icons] /home/sakha-t4504/Desktop/sunnev-app/node_modules/react-native-vector-icons/android/build/intermediates/merged_manifest/debug/AndroidManifest.xml:5:5-7:41
MERGED from [com.facebook.react:react-native:0.66.0] /home/sakha-t4504/.gradle/caches/transforms-2/files-2.1/f0a37fef4e022b985f06a2f81addce06/jetified-react-native-0.66.0/AndroidManifest.xml:5:5-7:41
MERGED from [com.facebook.react:react-native:0.66.0] /home/sakha-t4504/.gradle/caches/transforms-2/files-2.1/f0a37fef4e022b985f06a2f81addce06/jetified-react-native-0.66.0/AndroidManifest.xml:5:5-7:41
MERGED from [androidx.swiperefreshlayout:swiperefreshlayout:1.0.0] /home/sakha-t4504/.gradle/caches/transforms-2/files-2.1/a8dfdd48a7627ba7f14685d9e694f030/swiperefreshlayout-1.0.0/AndroidManifest.xml:20:5-44
MERGED from [androidx.swiperefreshlayout:swiperefreshlayout:1.0.0] /home/sakha-t4504/.gradle/caches/transforms-2/files-2.1/a8dfdd48a7627ba7f14685d9e694f030/swiperefreshlayout-1.0.0/AndroidManifest.xml:20:5-44
MERGED from [org.webkit:android-jsc:r250230] /home/sakha-t4504/.gradle/caches/transforms-2/files-2.1/6ed014b824cf26c0a7472d75707b2195/jetified-android-jsc-r250230/AndroidManifest.xml:7:5-9:41
MERGED from [org.webkit:android-jsc:r250230] /home/sakha-t4504/.gradle/caches/transforms-2/files-2.1/6ed014b824cf26c0a7472d75707b2195/jetified-android-jsc-r250230/AndroidManifest.xml:7:5-9:41
MERGED from [com.facebook.fresco:flipper:2.5.0] /home/sakha-t4504/.gradle/caches/transforms-2/files-2.1/1cc35f68ab81673ef138c9ab61a9480a/jetified-flipper-2.5.0/AndroidManifest.xml:5:5-7:41
MERGED from [com.facebook.fresco:flipper:2.5.0] /home/sakha-t4504/.gradle/caches/transforms-2/files-2.1/1cc35f68ab81673ef138c9ab61a9480a/jetified-flipper-2.5.0/AndroidManifest.xml:5:5-7:41
MERGED from [com.facebook.fresco:stetho:2.5.0] /home/sakha-t4504/.gradle/caches/transforms-2/files-2.1/9aadb9e7dd319d2aec1505ebf57e40ee/jetified-stetho-2.5.0/AndroidManifest.xml:5:5-7:41
MERGED from [com.facebook.fresco:stetho:2.5.0] /home/sakha-t4504/.gradle/caches/transforms-2/files-2.1/9aadb9e7dd319d2aec1505ebf57e40ee/jetified-stetho-2.5.0/AndroidManifest.xml:5:5-7:41
MERGED from [com.facebook.fresco:fresco:2.5.0] /home/sakha-t4504/.gradle/caches/transforms-2/files-2.1/6ea32d7d5c86cbfa3d35751b27790367/jetified-fresco-2.5.0/AndroidManifest.xml:5:5-7:41
MERGED from [com.facebook.fresco:fresco:2.5.0] /home/sakha-t4504/.gradle/caches/transforms-2/files-2.1/6ea32d7d5c86cbfa3d35751b27790367/jetified-fresco-2.5.0/AndroidManifest.xml:5:5-7:41
MERGED from [com.facebook.fresco:soloader:2.5.0] /home/sakha-t4504/.gradle/caches/transforms-2/files-2.1/58209c65e26a74db7119227792cd704a/jetified-soloader-2.5.0/AndroidManifest.xml:5:5-7:41
MERGED from [com.facebook.fresco:soloader:2.5.0] /home/sakha-t4504/.gradle/caches/transforms-2/files-2.1/58209c65e26a74db7119227792cd704a/jetified-soloader-2.5.0/AndroidManifest.xml:5:5-7:41
MERGED from [com.facebook.fresco:imagepipeline-okhttp3:2.5.0] /home/sakha-t4504/.gradle/caches/transforms-2/files-2.1/3c04ff60198a4e65b1b61b98239cef4e/jetified-imagepipeline-okhttp3-2.5.0/AndroidManifest.xml:5:5-7:41
MERGED from [com.facebook.fresco:imagepipeline-okhttp3:2.5.0] /home/sakha-t4504/.gradle/caches/transforms-2/files-2.1/3c04ff60198a4e65b1b61b98239cef4e/jetified-imagepipeline-okhttp3-2.5.0/AndroidManifest.xml:5:5-7:41
MERGED from [com.facebook.fresco:drawee:2.5.0] /home/sakha-t4504/.gradle/caches/transforms-2/files-2.1/4fad59f5829eae2d6f5ce1baef3f4694/jetified-drawee-2.5.0/AndroidManifest.xml:5:5-7:41
MERGED from [com.facebook.fresco:drawee:2.5.0] /home/sakha-t4504/.gradle/caches/transforms-2/files-2.1/4fad59f5829eae2d6f5ce1baef3f4694/jetified-drawee-2.5.0/AndroidManifest.xml:5:5-7:41
MERGED from [com.facebook.fresco:nativeimagefilters:2.5.0] /home/sakha-t4504/.gradle/caches/transforms-2/files-2.1/ac93f5f8e94602cad5cc56477af9ebfb/jetified-nativeimagefilters-2.5.0/AndroidManifest.xml:5:5-7:41
MERGED from [com.facebook.fresco:nativeimagefilters:2.5.0] /home/sakha-t4504/.gradle/caches/transforms-2/files-2.1/ac93f5f8e94602cad5cc56477af9ebfb/jetified-nativeimagefilters-2.5.0/AndroidManifest.xml:5:5-7:41
MERGED from [com.facebook.fresco:memory-type-native:2.5.0] /home/sakha-t4504/.gradle/caches/transforms-2/files-2.1/08da91f4b8ad8f71adf9bbb8001a6551/jetified-memory-type-native-2.5.0/AndroidManifest.xml:5:5-7:41
MERGED from [com.facebook.fresco:memory-type-native:2.5.0] /home/sakha-t4504/.gradle/caches/transforms-2/files-2.1/08da91f4b8ad8f71adf9bbb8001a6551/jetified-memory-type-native-2.5.0/AndroidManifest.xml:5:5-7:41
MERGED from [com.facebook.fresco:memory-type-java:2.5.0] /home/sakha-t4504/.gradle/caches/transforms-2/files-2.1/8ca25bd49a6abeb23160e6a0eea64f6a/jetified-memory-type-java-2.5.0/AndroidManifest.xml:5:5-7:41
MERGED from [com.facebook.fresco:memory-type-java:2.5.0] /home/sakha-t4504/.gradle/caches/transforms-2/files-2.1/8ca25bd49a6abeb23160e6a0eea64f6a/jetified-memory-type-java-2.5.0/AndroidManifest.xml:5:5-7:41
MERGED from [com.facebook.fresco:imagepipeline-native:2.5.0] /home/sakha-t4504/.gradle/caches/transforms-2/files-2.1/023cce834ceca2c3d7ea725c688231fd/jetified-imagepipeline-native-2.5.0/AndroidManifest.xml:5:5-7:41
MERGED from [com.facebook.fresco:imagepipeline-native:2.5.0] /home/sakha-t4504/.gradle/caches/transforms-2/files-2.1/023cce834ceca2c3d7ea725c688231fd/jetified-imagepipeline-native-2.5.0/AndroidManifest.xml:5:5-7:41
MERGED from [com.facebook.soloader:soloader:0.10.1] /home/sakha-t4504/.gradle/caches/transforms-2/files-2.1/537b4305fcfa1f338962e743340ab9ec/jetified-soloader-0.10.1/AndroidManifest.xml:7:5-9:41
MERGED from [com.facebook.soloader:soloader:0.10.1] /home/sakha-t4504/.gradle/caches/transforms-2/files-2.1/537b4305fcfa1f338962e743340ab9ec/jetified-soloader-0.10.1/AndroidManifest.xml:7:5-9:41
MERGED from [com.facebook.fresco:memory-type-ashmem:2.5.0] /home/sakha-t4504/.gradle/caches/transforms-2/files-2.1/fef4af19962170d8acdb52852dc94ea9/jetified-memory-type-ashmem-2.5.0/AndroidManifest.xml:5:5-7:41
MERGED from [com.facebook.fresco:memory-type-ashmem:2.5.0] /home/sakha-t4504/.gradle/caches/transforms-2/files-2.1/fef4af19962170d8acdb52852dc94ea9/jetified-memory-type-ashmem-2.5.0/AndroidManifest.xml:5:5-7:41
MERGED from [com.facebook.fresco:imagepipeline:2.5.0] /home/sakha-t4504/.gradle/caches/transforms-2/files-2.1/091ec2a17907de8d9c56b837cfd6b110/jetified-imagepipeline-2.5.0/AndroidManifest.xml:5:5-7:41
MERGED from [com.facebook.fresco:imagepipeline:2.5.0] /home/sakha-t4504/.gradle/caches/transforms-2/files-2.1/091ec2a17907de8d9c56b837cfd6b110/jetified-imagepipeline-2.5.0/AndroidManifest.xml:5:5-7:41
MERGED from [com.facebook.fresco:nativeimagetranscoder:2.5.0] /home/sakha-t4504/.gradle/caches/transforms-2/files-2.1/fe5808a2b8857751cbcd225bd30243b3/jetified-nativeimagetranscoder-2.5.0/AndroidManifest.xml:5:5-7:41
MERGED from [com.facebook.fresco:nativeimagetranscoder:2.5.0] /home/sakha-t4504/.gradle/caches/transforms-2/files-2.1/fe5808a2b8857751cbcd225bd30243b3/jetified-nativeimagetranscoder-2.5.0/AndroidManifest.xml:5:5-7:41
MERGED from [com.facebook.fresco:imagepipeline-base:2.5.0] /home/sakha-t4504/.gradle/caches/transforms-2/files-2.1/4eb5ac7f95e2342b064008bc0c3de5a9/jetified-imagepipeline-base-2.5.0/AndroidManifest.xml:5:5-7:41
MERGED from [com.facebook.fresco:imagepipeline-base:2.5.0] /home/sakha-t4504/.gradle/caches/transforms-2/files-2.1/4eb5ac7f95e2342b064008bc0c3de5a9/jetified-imagepipeline-base-2.5.0/AndroidManifest.xml:5:5-7:41
MERGED from [com.google.android.material:material:1.1.0] /home/sakha-t4504/.gradle/caches/transforms-2/files-2.1/49254b3f9a4377c4885e8931bf2f5a16/material-1.1.0/AndroidManifest.xml:20:5-44
MERGED from [com.google.android.material:material:1.1.0] /home/sakha-t4504/.gradle/caches/transforms-2/files-2.1/49254b3f9a4377c4885e8931bf2f5a16/material-1.1.0/AndroidManifest.xml:20:5-44
MERGED from [androidx.appcompat:appcompat:1.3.0] /home/sakha-t4504/.gradle/caches/transforms-2/files-2.1/60f55f849fe3058cf6c57f8a12fe7aab/appcompat-1.3.0/AndroidManifest.xml:20:5-22:41
MERGED from [androidx.appcompat:appcompat:1.3.0] /home/sakha-t4504/.gradle/caches/transforms-2/files-2.1/60f55f849fe3058cf6c57f8a12fe7aab/appcompat-1.3.0/AndroidManifest.xml:20:5-22:41
MERGED from [androidx.sqlite:sqlite-framework:2.1.0] /home/sakha-t4504/.gradle/caches/transforms-2/files-2.1/4c42d72ac173cc222eb83c0553a5e2f6/sqlite-framework-2.1.0/AndroidManifest.xml:20:5-22:41
MERGED from [androidx.sqlite:sqlite-framework:2.1.0] /home/sakha-t4504/.gradle/caches/transforms-2/files-2.1/4c42d72ac173cc222eb83c0553a5e2f6/sqlite-framework-2.1.0/AndroidManifest.xml:20:5-22:41
MERGED from [androidx.autofill:autofill:1.1.0] /home/sakha-t4504/.gradle/caches/transforms-2/files-2.1/216c5e522d0bc3b1993e5b9880bc564e/jetified-autofill-1.1.0/AndroidManifest.xml:20:5-22:41
MERGED from [androidx.autofill:autofill:1.1.0] /home/sakha-t4504/.gradle/caches/transforms-2/files-2.1/216c5e522d0bc3b1993e5b9880bc564e/jetified-autofill-1.1.0/AndroidManifest.xml:20:5-22:41
MERGED from [com.facebook.fresco:middleware:2.5.0] /home/sakha-t4504/.gradle/caches/transforms-2/files-2.1/0f4af3bf53193e336ada21995bbda551/jetified-middleware-2.5.0/AndroidManifest.xml:5:5-7:41
MERGED from [com.facebook.fresco:middleware:2.5.0] /home/sakha-t4504/.gradle/caches/transforms-2/files-2.1/0f4af3bf53193e336ada21995bbda551/jetified-middleware-2.5.0/AndroidManifest.xml:5:5-7:41
MERGED from [com.facebook.fresco:ui-common:2.5.0] /home/sakha-t4504/.gradle/caches/transforms-2/files-2.1/f2c47bc9d75f81d36eed34b0c4f59cc6/jetified-ui-common-2.5.0/AndroidManifest.xml:5:5-7:41
MERGED from [com.facebook.fresco:ui-common:2.5.0] /home/sakha-t4504/.gradle/caches/transforms-2/files-2.1/f2c47bc9d75f81d36eed34b0c4f59cc6/jetified-ui-common-2.5.0/AndroidManifest.xml:5:5-7:41
MERGED from [androidx.browser:browser:1.2.0] /home/sakha-t4504/.gradle/caches/transforms-2/files-2.1/16ebc7d684f81555152cc4f9f1e51ba5/browser-1.2.0/AndroidManifest.xml:20:5-22:41
MERGED from [androidx.browser:browser:1.2.0] /home/sakha-t4504/.gradle/caches/transforms-2/files-2.1/16ebc7d684f81555152cc4f9f1e51ba5/browser-1.2.0/AndroidManifest.xml:20:5-22:41
MERGED from [androidx.appcompat:appcompat-resources:1.3.0] /home/sakha-t4504/.gradle/caches/transforms-2/files-2.1/ef46474007b4a9dd7182aa2cfc333967/jetified-appcompat-resources-1.3.0/AndroidManifest.xml:20:5-22:41
MERGED from [androidx.appcompat:appcompat-resources:1.3.0] /home/sakha-t4504/.gradle/caches/transforms-2/files-2.1/ef46474007b4a9dd7182aa2cfc333967/jetified-appcompat-resources-1.3.0/AndroidManifest.xml:20:5-22:41
MERGED from [androidx.vectordrawable:vectordrawable-animated:1.1.0] /home/sakha-t4504/.gradle/caches/transforms-2/files-2.1/eee09a6ef29bf9f4b1744bce269f2400/vectordrawable-animated-1.1.0/AndroidManifest.xml:20:5-22:41
MERGED from [androidx.vectordrawable:vectordrawable-animated:1.1.0] /home/sakha-t4504/.gradle/caches/transforms-2/files-2.1/eee09a6ef29bf9f4b1744bce269f2400/vectordrawable-animated-1.1.0/AndroidManifest.xml:20:5-22:41
MERGED from [androidx.interpolator:interpolator:1.0.0] /home/sakha-t4504/.gradle/caches/transforms-2/files-2.1/3e3edfd256295f36580e2a347fe48df4/interpolator-1.0.0/AndroidManifest.xml:20:5-44
MERGED from [androidx.interpolator:interpolator:1.0.0] /home/sakha-t4504/.gradle/caches/transforms-2/files-2.1/3e3edfd256295f36580e2a347fe48df4/interpolator-1.0.0/AndroidManifest.xml:20:5-44
MERGED from [androidx.viewpager2:viewpager2:1.0.0] /home/sakha-t4504/.gradle/caches/transforms-2/files-2.1/04623480c363d7fc6ea21bff1063c4e8/jetified-viewpager2-1.0.0/AndroidManifest.xml:20:5-22:41
MERGED from [androidx.viewpager2:viewpager2:1.0.0] /home/sakha-t4504/.gradle/caches/transforms-2/files-2.1/04623480c363d7fc6ea21bff1063c4e8/jetified-viewpager2-1.0.0/AndroidManifest.xml:20:5-22:41
MERGED from [androidx.coordinatorlayout:coordinatorlayout:1.1.0] /home/sakha-t4504/.gradle/caches/transforms-2/files-2.1/2f06cf59b409b584b45a28eb51577658/coordinatorlayout-1.1.0/AndroidManifest.xml:20:5-22:41
MERGED from [androidx.coordinatorlayout:coordinatorlayout:1.1.0] /home/sakha-t4504/.gradle/caches/transforms-2/files-2.1/2f06cf59b409b584b45a28eb51577658/coordinatorlayout-1.1.0/AndroidManifest.xml:20:5-22:41
MERGED from [androidx.fragment:fragment:1.3.4] /home/sakha-t4504/.gradle/caches/transforms-2/files-2.1/c0adea4d02b5889023e658d4fa7e8817/fragment-1.3.4/AndroidManifest.xml:20:5-22:41
MERGED from [androidx.fragment:fragment:1.3.4] /home/sakha-t4504/.gradle/caches/transforms-2/files-2.1/c0adea4d02b5889023e658d4fa7e8817/fragment-1.3.4/AndroidManifest.xml:20:5-22:41
MERGED from [androidx.activity:activity:1.2.3] /home/sakha-t4504/.gradle/caches/transforms-2/files-2.1/ca7b1eaef5f33ba3a1beed9bb54d5d44/jetified-activity-1.2.3/AndroidManifest.xml:20:5-22:41
MERGED from [androidx.activity:activity:1.2.3] /home/sakha-t4504/.gradle/caches/transforms-2/files-2.1/ca7b1eaef5f33ba3a1beed9bb54d5d44/jetified-activity-1.2.3/AndroidManifest.xml:20:5-22:41
MERGED from [androidx.drawerlayout:drawerlayout:1.0.0] /home/sakha-t4504/.gradle/caches/transforms-2/files-2.1/0207a19946c50cffa75456c6ce9eeb6e/drawerlayout-1.0.0/AndroidManifest.xml:20:5-44
MERGED from [androidx.drawerlayout:drawerlayout:1.0.0] /home/sakha-t4504/.gradle/caches/transforms-2/files-2.1/0207a19946c50cffa75456c6ce9eeb6e/drawerlayout-1.0.0/AndroidManifest.xml:20:5-44
MERGED from [androidx.recyclerview:recyclerview:1.1.0] /home/sakha-t4504/.gradle/caches/transforms-2/files-2.1/49383b39e2b96d866119d3471844378d/recyclerview-1.1.0/AndroidManifest.xml:20:5-22:41
MERGED from [androidx.recyclerview:recyclerview:1.1.0] /home/sakha-t4504/.gradle/caches/transforms-2/files-2.1/49383b39e2b96d866119d3471844378d/recyclerview-1.1.0/AndroidManifest.xml:20:5-22:41
MERGED from [androidx.viewpager:viewpager:1.0.0] /home/sakha-t4504/.gradle/caches/transforms-2/files-2.1/f9d5bd6112a9b739a4148486b2a8d958/viewpager-1.0.0/AndroidManifest.xml:20:5-44
MERGED from [androidx.viewpager:viewpager:1.0.0] /home/sakha-t4504/.gradle/caches/transforms-2/files-2.1/f9d5bd6112a9b739a4148486b2a8d958/viewpager-1.0.0/AndroidManifest.xml:20:5-44
MERGED from [androidx.customview:customview:1.0.0] /home/sakha-t4504/.gradle/caches/transforms-2/files-2.1/169f181162afe56d4a696d98123e3920/customview-1.0.0/AndroidManifest.xml:20:5-44
MERGED from [androidx.customview:customview:1.0.0] /home/sakha-t4504/.gradle/caches/transforms-2/files-2.1/169f181162afe56d4a696d98123e3920/customview-1.0.0/AndroidManifest.xml:20:5-44
MERGED from [androidx.transition:transition:1.2.0] /home/sakha-t4504/.gradle/caches/transforms-2/files-2.1/386e87e903a8cce053d10e2b9a117611/transition-1.2.0/AndroidManifest.xml:20:5-22:41
MERGED from [androidx.transition:transition:1.2.0] /home/sakha-t4504/.gradle/caches/transforms-2/files-2.1/386e87e903a8cce053d10e2b9a117611/transition-1.2.0/AndroidManifest.xml:20:5-22:41
MERGED from [androidx.vectordrawable:vectordrawable:1.1.0] /home/sakha-t4504/.gradle/caches/transforms-2/files-2.1/c6b6972e6171a6320bdf70572301960b/vectordrawable-1.1.0/AndroidManifest.xml:20:5-22:41
MERGED from [androidx.vectordrawable:vectordrawable:1.1.0] /home/sakha-t4504/.gradle/caches/transforms-2/files-2.1/c6b6972e6171a6320bdf70572301960b/vectordrawable-1.1.0/AndroidManifest.xml:20:5-22:41
MERGED from [androidx.loader:loader:1.0.0] /home/sakha-t4504/.gradle/caches/transforms-2/files-2.1/1db75c242e945d5468916304b05486d0/loader-1.0.0/AndroidManifest.xml:20:5-44
MERGED from [androidx.loader:loader:1.0.0] /home/sakha-t4504/.gradle/caches/transforms-2/files-2.1/1db75c242e945d5468916304b05486d0/loader-1.0.0/AndroidManifest.xml:20:5-44
MERGED from [androidx.core:core:1.5.0] /home/sakha-t4504/.gradle/caches/transforms-2/files-2.1/06d2d4dbfdabd6ab0290c6234495b966/core-1.5.0/AndroidManifest.xml:20:5-22:41
MERGED from [androidx.core:core:1.5.0] /home/sakha-t4504/.gradle/caches/transforms-2/files-2.1/06d2d4dbfdabd6ab0290c6234495b966/core-1.5.0/AndroidManifest.xml:20:5-22:41
MERGED from [androidx.cursoradapter:cursoradapter:1.0.0] /home/sakha-t4504/.gradle/caches/transforms-2/files-2.1/ae7bfff1d1b82f3a56e0a5bbf9e1a4b2/cursoradapter-1.0.0/AndroidManifest.xml:20:5-44
MERGED from [androidx.cursoradapter:cursoradapter:1.0.0] /home/sakha-t4504/.gradle/caches/transforms-2/files-2.1/ae7bfff1d1b82f3a56e0a5bbf9e1a4b2/cursoradapter-1.0.0/AndroidManifest.xml:20:5-44
MERGED from [androidx.lifecycle:lifecycle-viewmodel-savedstate:2.3.1] /home/sakha-t4504/.gradle/caches/transforms-2/files-2.1/5784c2b86a4c49bc25795330978ed2aa/jetified-lifecycle-viewmodel-savedstate-2.3.1/AndroidManifest.xml:20:5-22:41
MERGED from [androidx.lifecycle:lifecycle-viewmodel-savedstate:2.3.1] /home/sakha-t4504/.gradle/caches/transforms-2/files-2.1/5784c2b86a4c49bc25795330978ed2aa/jetified-lifecycle-viewmodel-savedstate-2.3.1/AndroidManifest.xml:20:5-22:41
MERGED from [androidx.savedstate:savedstate:1.1.0] /home/sakha-t4504/.gradle/caches/transforms-2/files-2.1/dcccfa8f9f5a312bf6e661fdac02afbd/jetified-savedstate-1.1.0/AndroidManifest.xml:20:5-22:41
MERGED from [androidx.savedstate:savedstate:1.1.0] /home/sakha-t4504/.gradle/caches/transforms-2/files-2.1/dcccfa8f9f5a312bf6e661fdac02afbd/jetified-savedstate-1.1.0/AndroidManifest.xml:20:5-22:41
MERGED from [androidx.lifecycle:lifecycle-runtime:2.3.1] /home/sakha-t4504/.gradle/caches/transforms-2/files-2.1/f0521851a9272e8988276dd842141243/lifecycle-runtime-2.3.1/AndroidManifest.xml:20:5-22:41
MERGED from [androidx.lifecycle:lifecycle-runtime:2.3.1] /home/sakha-t4504/.gradle/caches/transforms-2/files-2.1/f0521851a9272e8988276dd842141243/lifecycle-runtime-2.3.1/AndroidManifest.xml:20:5-22:41
MERGED from [androidx.lifecycle:lifecycle-viewmodel:2.3.1] /home/sakha-t4504/.gradle/caches/transforms-2/files-2.1/842095d20d3923d0c9134de338252181/lifecycle-viewmodel-2.3.1/AndroidManifest.xml:20:5-22:41
MERGED from [androidx.lifecycle:lifecycle-viewmodel:2.3.1] /home/sakha-t4504/.gradle/caches/transforms-2/files-2.1/842095d20d3923d0c9134de338252181/lifecycle-viewmodel-2.3.1/AndroidManifest.xml:20:5-22:41
MERGED from [androidx.sqlite:sqlite:2.1.0] /home/sakha-t4504/.gradle/caches/transforms-2/files-2.1/18b70bd885ef44b04d23eaea8b9e2565/sqlite-2.1.0/AndroidManifest.xml:20:5-22:41
MERGED from [androidx.sqlite:sqlite:2.1.0] /home/sakha-t4504/.gradle/caches/transforms-2/files-2.1/18b70bd885ef44b04d23eaea8b9e2565/sqlite-2.1.0/AndroidManifest.xml:20:5-22:41
MERGED from [androidx.versionedparcelable:versionedparcelable:1.1.1] /home/sakha-t4504/.gradle/caches/transforms-2/files-2.1/f045c28ab041f1b619adca014bdef617/versionedparcelable-1.1.1/AndroidManifest.xml:20:5-22:41
MERGED from [androidx.versionedparcelable:versionedparcelable:1.1.1] /home/sakha-t4504/.gradle/caches/transforms-2/files-2.1/f045c28ab041f1b619adca014bdef617/versionedparcelable-1.1.1/AndroidManifest.xml:20:5-22:41
MERGED from [androidx.cardview:cardview:1.0.0] /home/sakha-t4504/.gradle/caches/transforms-2/files-2.1/80091c578355faacb5952acbadd09f04/cardview-1.0.0/AndroidManifest.xml:20:5-44
MERGED from [androidx.cardview:cardview:1.0.0] /home/sakha-t4504/.gradle/caches/transforms-2/files-2.1/80091c578355faacb5952acbadd09f04/cardview-1.0.0/AndroidManifest.xml:20:5-44
MERGED from [androidx.tracing:tracing:1.0.0] /home/sakha-t4504/.gradle/caches/transforms-2/files-2.1/f99f0e94433f7a4ca40a9262f20fc09a/jetified-tracing-1.0.0/AndroidManifest.xml:20:5-22:41
MERGED from [androidx.tracing:tracing:1.0.0] /home/sakha-t4504/.gradle/caches/transforms-2/files-2.1/f99f0e94433f7a4ca40a9262f20fc09a/jetified-tracing-1.0.0/AndroidManifest.xml:20:5-22:41
MERGED from [androidx.lifecycle:lifecycle-livedata:2.0.0] /home/sakha-t4504/.gradle/caches/transforms-2/files-2.1/ebdf1b21acda14c0f3b42515fde52f8f/lifecycle-livedata-2.0.0/AndroidManifest.xml:20:5-44
MERGED from [androidx.lifecycle:lifecycle-livedata:2.0.0] /home/sakha-t4504/.gradle/caches/transforms-2/files-2.1/ebdf1b21acda14c0f3b42515fde52f8f/lifecycle-livedata-2.0.0/AndroidManifest.xml:20:5-44
MERGED from [androidx.lifecycle:lifecycle-livedata-core:2.3.1] /home/sakha-t4504/.gradle/caches/transforms-2/files-2.1/8fc31c708ec6dc9144a8a1e8a838ba3e/lifecycle-livedata-core-2.3.1/AndroidManifest.xml:20:5-22:41
MERGED from [androidx.lifecycle:lifecycle-livedata-core:2.3.1] /home/sakha-t4504/.gradle/caches/transforms-2/files-2.1/8fc31c708ec6dc9144a8a1e8a838ba3e/lifecycle-livedata-core-2.3.1/AndroidManifest.xml:20:5-22:41
MERGED from [androidx.arch.core:core-runtime:2.1.0] /home/sakha-t4504/.gradle/caches/transforms-2/files-2.1/07e10bd024a5e47e7e02e4feac5b2813/core-runtime-2.1.0/AndroidManifest.xml:20:5-22:41
MERGED from [androidx.arch.core:core-runtime:2.1.0] /home/sakha-t4504/.gradle/caches/transforms-2/files-2.1/07e10bd024a5e47e7e02e4feac5b2813/core-runtime-2.1.0/AndroidManifest.xml:20:5-22:41
MERGED from [com.facebook.fresco:fbcore:2.5.0] /home/sakha-t4504/.gradle/caches/transforms-2/files-2.1/14eb99e1b7213746a76d663814010fa3/jetified-fbcore-2.5.0/AndroidManifest.xml:5:5-7:41
MERGED from [com.facebook.fresco:fbcore:2.5.0] /home/sakha-t4504/.gradle/caches/transforms-2/files-2.1/14eb99e1b7213746a76d663814010fa3/jetified-fbcore-2.5.0/AndroidManifest.xml:5:5-7:41
MERGED from [androidx.annotation:annotation-experimental:1.0.0] /home/sakha-t4504/.gradle/caches/transforms-2/files-2.1/0c62e577b790f781bf8ab6db59ad2963/jetified-annotation-experimental-1.0.0/AndroidManifest.xml:20:5-22:41
MERGED from [androidx.annotation:annotation-experimental:1.0.0] /home/sakha-t4504/.gradle/caches/transforms-2/files-2.1/0c62e577b790f781bf8ab6db59ad2963/jetified-annotation-experimental-1.0.0/AndroidManifest.xml:20:5-22:41
INJECTED from /home/sakha-t4504/Desktop/sunnev-app/android/app/src/debug/AndroidManifest.xml
INJECTED from /home/sakha-t4504/Desktop/sunnev-app/android/app/src/debug/AndroidManifest.xml
	android:targetSdkVersion
		INJECTED from /home/sakha-t4504/Desktop/sunnev-app/android/app/src/main/AndroidManifest.xml
		INJECTED from /home/sakha-t4504/Desktop/sunnev-app/android/app/src/debug/AndroidManifest.xml
	android:minSdkVersion
		INJECTED from /home/sakha-t4504/Desktop/sunnev-app/android/app/src/main/AndroidManifest.xml
		INJECTED from /home/sakha-t4504/Desktop/sunnev-app/android/app/src/debug/AndroidManifest.xml
uses-permission#android.permission.SYSTEM_ALERT_WINDOW
ADDED from /home/sakha-t4504/Desktop/sunnev-app/android/app/src/debug/AndroidManifest.xml:5:5-77
	android:name
		ADDED from /home/sakha-t4504/Desktop/sunnev-app/android/app/src/debug/AndroidManifest.xml:5:22-75
activity#com.facebook.react.devsupport.DevSettingsActivity
ADDED from /home/sakha-t4504/Desktop/sunnev-app/android/app/src/debug/AndroidManifest.xml:11:9-86
	android:name
		ADDED from /home/sakha-t4504/Desktop/sunnev-app/android/app/src/debug/AndroidManifest.xml:11:19-83
uses-permission#android.permission.ACCESS_WIFI_STATE
ADDED from [com.facebook.flipper:flipper:0.99.0] /home/sakha-t4504/.gradle/caches/transforms-2/files-2.1/4fbc67491df6e76a5346b6b7d0adb7ac/jetified-flipper-0.99.0/AndroidManifest.xml:16:5-76
	android:name
		ADDED from [com.facebook.flipper:flipper:0.99.0] /home/sakha-t4504/.gradle/caches/transforms-2/files-2.1/4fbc67491df6e76a5346b6b7d0adb7ac/jetified-flipper-0.99.0/AndroidManifest.xml:16:22-73
queries
ADDED from [:react-native-auth0] /home/sakha-t4504/Desktop/sunnev-app/node_modules/react-native-auth0/android/build/intermediates/merged_manifest/debug/AndroidManifest.xml:14:5-22:15
intent#action:name:android.intent.action.VIEW+category:name:android.intent.category.BROWSABLE+data:scheme:https
ADDED from [:react-native-auth0] /home/sakha-t4504/Desktop/sunnev-app/node_modules/react-native-auth0/android/build/intermediates/merged_manifest/debug/AndroidManifest.xml:15:9-21:18
action#android.intent.action.VIEW
ADDED from [:react-native-auth0] /home/sakha-t4504/Desktop/sunnev-app/node_modules/react-native-auth0/android/build/intermediates/merged_manifest/debug/AndroidManifest.xml:16:13-65
	android:name
		ADDED from [:react-native-auth0] /home/sakha-t4504/Desktop/sunnev-app/node_modules/react-native-auth0/android/build/intermediates/merged_manifest/debug/AndroidManifest.xml:16:21-62
category#android.intent.category.BROWSABLE
ADDED from [:react-native-auth0] /home/sakha-t4504/Desktop/sunnev-app/node_modules/react-native-auth0/android/build/intermediates/merged_manifest/debug/AndroidManifest.xml:18:13-74
	android:name
		ADDED from [:react-native-auth0] /home/sakha-t4504/Desktop/sunnev-app/node_modules/react-native-auth0/android/build/intermediates/merged_manifest/debug/AndroidManifest.xml:18:23-71
data
ADDED from [:react-native-auth0] /home/sakha-t4504/Desktop/sunnev-app/node_modules/react-native-auth0/android/build/intermediates/merged_manifest/debug/AndroidManifest.xml:20:13-44
	android:scheme
		ADDED from [:react-native-auth0] /home/sakha-t4504/Desktop/sunnev-app/node_modules/react-native-auth0/android/build/intermediates/merged_manifest/debug/AndroidManifest.xml:20:19-41
activity#com.auth0.react.AuthenticationActivity
ADDED from [:react-native-auth0] /home/sakha-t4504/Desktop/sunnev-app/node_modules/react-native-auth0/android/build/intermediates/merged_manifest/debug/AndroidManifest.xml:25:9-29:75
	android:launchMode
		ADDED from [:react-native-auth0] /home/sakha-t4504/Desktop/sunnev-app/node_modules/react-native-auth0/android/build/intermediates/merged_manifest/debug/AndroidManifest.xml:28:13-44
	android:exported
		ADDED from [:react-native-auth0] /home/sakha-t4504/Desktop/sunnev-app/node_modules/react-native-auth0/android/build/intermediates/merged_manifest/debug/AndroidManifest.xml:27:13-37
	android:theme
		ADDED from [:react-native-auth0] /home/sakha-t4504/Desktop/sunnev-app/node_modules/react-native-auth0/android/build/intermediates/merged_manifest/debug/AndroidManifest.xml:29:13-72
	android:name
		ADDED from [:react-native-auth0] /home/sakha-t4504/Desktop/sunnev-app/node_modules/react-native-auth0/android/build/intermediates/merged_manifest/debug/AndroidManifest.xml:26:13-66
activity#com.auth0.react.RedirectActivity
ADDED from [:react-native-auth0] /home/sakha-t4504/Desktop/sunnev-app/node_modules/react-native-auth0/android/build/intermediates/merged_manifest/debug/AndroidManifest.xml:30:9-46:20
	android:exported
		ADDED from [:react-native-auth0] /home/sakha-t4504/Desktop/sunnev-app/node_modules/react-native-auth0/android/build/intermediates/merged_manifest/debug/AndroidManifest.xml:32:13-36
	android:name
		ADDED from [:react-native-auth0] /home/sakha-t4504/Desktop/sunnev-app/node_modules/react-native-auth0/android/build/intermediates/merged_manifest/debug/AndroidManifest.xml:31:13-60
intent-filter#action:name:android.intent.action.VIEW+category:name:android.intent.category.BROWSABLE+category:name:android.intent.category.DEFAULT+data:host:${auth0Domain}+data:pathPrefix:/android/${applicationId}/callback+data:scheme:${auth0Scheme}
ADDED from [:react-native-auth0] /home/sakha-t4504/Desktop/sunnev-app/node_modules/react-native-auth0/android/build/intermediates/merged_manifest/debug/AndroidManifest.xml:33:13-45:29
	android:autoVerify
		ADDED from [:react-native-auth0] /home/sakha-t4504/Desktop/sunnev-app/node_modules/react-native-auth0/android/build/intermediates/merged_manifest/debug/AndroidManifest.xml:34:17-42
	tools:targetApi
		ADDED from [:react-native-auth0] /home/sakha-t4504/Desktop/sunnev-app/node_modules/react-native-auth0/android/build/intermediates/merged_manifest/debug/AndroidManifest.xml:35:17-36
intent-filter#action:name:android.intent.action.VIEW+category:name:android.intent.category.BROWSABLE+category:name:android.intent.category.DEFAULT+data:host:dev-gsenv7rs.eu.auth0.com+data:pathPrefix:/android/com.sunevhealth.sunev/callback+data:scheme:com.sunevhealth.sunev
ADDED from [:react-native-auth0] /home/sakha-t4504/Desktop/sunnev-app/node_modules/react-native-auth0/android/build/intermediates/merged_manifest/debug/AndroidManifest.xml:33:13-45:29
	android:autoVerify
		ADDED from [:react-native-auth0] /home/sakha-t4504/Desktop/sunnev-app/node_modules/react-native-auth0/android/build/intermediates/merged_manifest/debug/AndroidManifest.xml:34:17-42
	tools:targetApi
		ADDED from [:react-native-auth0] /home/sakha-t4504/Desktop/sunnev-app/node_modules/react-native-auth0/android/build/intermediates/merged_manifest/debug/AndroidManifest.xml:35:17-36
category#android.intent.category.DEFAULT
ADDED from [:react-native-auth0] /home/sakha-t4504/Desktop/sunnev-app/node_modules/react-native-auth0/android/build/intermediates/merged_manifest/debug/AndroidManifest.xml:38:17-76
	android:name
		ADDED from [:react-native-auth0] /home/sakha-t4504/Desktop/sunnev-app/node_modules/react-native-auth0/android/build/intermediates/merged_manifest/debug/AndroidManifest.xml:38:27-73
